HW6 87 F21
…
#  Use read.csv to read in the data.  

b <- read.csv('BPDIncidents2020.csv')

Organizing Date/Time data

Note: some data may appear in Spanish due to my computers software.

#  Look at the call_time variable:  Print the first few observations, and do class().   It is in a month/day/year hour/minute format, but R does not recognize it as date/time data.  Using lubridate functions, we can 'extract' the date from call_time using the function mdy_hm(). (Other extraction functions are: dmy, myd, ymd, ydm, dym, mdy, ymd_hm)  Run the following code, print the first few observations of the new variable that has been created, and do class() for this new variable. (If R recognizes it as date/time data, the class should be "POSIXct" "POSIXt")
b <- b %>%
  mutate(Call = mdy_hm(call_time)) 

tibble(b$Call)

## # A tibble: 23,584 x 1
##    `b$Call`           
##    <dttm>             
##  1 2020-01-01 00:04:00
##  2 2020-01-01 00:13:00
##  3 2020-01-01 00:41:00
##  4 2020-01-01 01:06:00
##  5 2020-01-01 01:11:00
##  6 2020-01-01 02:05:00
##  7 2020-01-01 02:13:00
##  8 2020-01-01 03:10:00
##  9 2020-01-01 04:41:00
## 10 2020-01-01 09:36:00
## # ... with 23,574 more rows
…
