HW#5 87 F21 part 2
…
part a – reading in the data and ‘cleaning’ it: 1 pt

knitr::opts_chunk$set(echo = TRUE)

#  Load the tidyverse (or ggplot2 and dplyr) below:
library(tidyverse)

#  Download the MeasureF21.csv data; put it in your Stat/CS 087 project folder; read it like this:
m <- read.csv('MeasureF21.csv', stringsAsFactors = TRUE,
              na.strings = '')

tibble(m)

## # A tibble: 55 x 10
##    ï..Response_id ID    Height Armspan  Head Rhand Lhand RFoot LFoot Hand 
##             <int> <fct>  <dbl>   <dbl> <dbl> <dbl> <dbl> <dbl> <dbl> <fct>
##  1        1199767 727     61.8    62.5  22    7.5   7.75   8.5  8.5  Right
##  2        1199768 CAL3    64.8    65.5  22.5  8.5   8.25   9.5 10.5  Right
##  3        1199769 6101    68.2    68    23.5  7.5   7.5   10.2 10.2  Right
##  4        1199770 J0HN    70.2    73    23.5  8.5   8.5   10.5 10.5  Right
##  5        1199771 6434    70      68    23    8.25  8.5   10.5 10.5  Right
##  6        1199772 3717    69      68.8  22    8     8.25  10   10    Right
##  7        1199773 AB10    67.2    68.8  23.2  8     8     10    9    Right
##  8        1199774 YPIA    70.2    70.5  23    8.75  8.5   10.5 10.8  Right
##  9        1199775 8888    66.5    67.5  23    7.5   6.5    9.5  9.75 Right
## 10        1199776 6542    69.5    65    22.5  8.5   8.25  10   10    Right
## # ... with 45 more rows
…
